<?xml version="1.0" encoding="utf-8"?>
<!-- Generator: Adobe Illustrator 19.2.1, SVG Export Plug-In . SVG Version: 6.00 Build 0)  -->
<svg version="1.1" id="Calque_1" xmlns="http://www.w3.org/2000/svg" xmlns:xlink="http://www.w3.org/1999/xlink" x="0px" y="0px"
	 viewBox="0 0 65 65" style="enable-background:new 0 0 65 65;" xml:space="preserve">
<style type="text/css">
	.st0{fill:#F4DBB2;}
	.st1{opacity:0.1;fill:#595857;}
	.st2{fill:#DF6958;}
</style>
<circle class="st0" cx="32.5" cy="32.5" r="32.5"/>
<path class="st0" d="M27.7,14.9l-1.3,1.3h2C28.1,15.8,27.9,15.3,27.7,14.9z"/>
<path class="st0" d="M16.2,26.4l-1.3,1.3c0.5,0.2,0.9,0.4,1.3,0.6V26.4z"/>
<g>
	<path class="st0" d="M28.7,23.2l-4-5.1l15.5-7l1.8,5.3h9.5l10.3,30.4c2.1-4.3,3.3-9.1,3.3-14.2C65,14.6,50.4,0,32.5,0
		S0,14.6,0,32.5c0,11.6,6.1,21.8,15.3,27.6L6.4,35.8L28.7,23.2z"/>
	<path class="st1" d="M61.7,46.7L51.5,16.3H42L40.2,11l-15.5,7l4,5.1L6.4,35.8l8.9,24.3c5,3.1,10.9,4.9,17.2,4.9
		C45.4,65,56.5,57.5,61.7,46.7z"/>
</g>
<path class="st2" d="M47.1,27.3c1.7,0,3.3,0.7,4.4,1.8V16.2H39.4c0.6-1,1-2.2,1-3.4c0-3.6-2.9-6.5-6.5-6.5s-6.5,2.9-6.5,6.5
	c0,1.3,0.4,2.4,1,3.4H16.2v12.1c-0.2-0.1-0.4-0.2-0.7-0.4c-0.2-0.1-0.4-0.2-0.7-0.3l0,0l0,0c-0.3-0.1-0.6-0.2-1-0.3c0,0,0,0-0.1,0
	c-0.3-0.1-0.7-0.1-1.1-0.1l0,0c-3.6,0-6.5,2.9-6.5,6.5l0,0l0,0c0,3.3,2.5,6.1,5.8,6.5l0,0c0.2,0,0.5,0,0.7,0l0,0
	c0.6,0,1.2-0.1,1.8-0.3s1.1-0.4,1.6-0.7v12.1h12.9c-1.1-1.2-1.8-2.7-1.8-4.4c0-3.6,2.9-6.5,6.5-6.5s6.5,2.9,6.5,6.5
	c0,1.7-0.7,3.3-1.8,4.4h12.9v-12v-0.9c-0.1,0.1-0.2,0.1-0.3,0.2l0,0c-1.1,0.9-2.6,1.5-4.2,1.5c-3.6,0-6.5-2.9-6.5-6.5
	C40.6,30.3,43.5,27.3,47.1,27.3z"/>
</svg>
