<?xml version="1.0" encoding="utf-8"?>
<!-- Generator: Adobe Illustrator 19.2.1, SVG Export Plug-In . SVG Version: 6.00 Build 0)  -->
<svg version="1.1" id="Calque_1" xmlns="http://www.w3.org/2000/svg" xmlns:xlink="http://www.w3.org/1999/xlink" x="0px" y="0px"
	 viewBox="0 0 65 65" style="enable-background:new 0 0 65 65;" xml:space="preserve">
<style type="text/css">
	.st0{clip-path:url(#SVGID_2_);fill:#CFD9E6;}
	.st1{clip-path:url(#SVGID_2_);fill:#B5AAA1;}
	.st2{opacity:0.2;clip-path:url(#SVGID_2_);fill:#585857;}
	.st3{clip-path:url(#SVGID_2_);}
	.st4{fill:#4F5858;}
</style>
<g>
	<defs>
		<circle id="SVGID_1_" cx="32.5" cy="32.5" r="32.5"/>
	</defs>
	<clipPath id="SVGID_2_">
		<use xlink:href="#SVGID_1_"  style="overflow:visible;"/>
	</clipPath>
	<circle class="st0" cx="32.5" cy="32.5" r="32.5"/>
	<circle class="st0" cx="32.5" cy="32.5" r="32.5"/>
	<path class="st1" d="M47.1,48.3h-2.8v-4.1h-3.5v4.1h-2.8v1.1h-10V53h10v1.1h9.2V53h10v-3.5h-10V48.3z M47.1,48.3"/>
	<path class="st1" d="M6.3,48.3H3.5v-4.1H0v4.1h-2.8v1.1h-10V53h10v1.1h9.2V53h69.8v-3.5H6.3V48.3z M6.3,48.3"/>
	<path class="st2" d="M64.8,35.7l-7.9-18.4l-29.2,0.3l-0.1,1.2l0.3,24.2L16.5,17.6H3.6C1.3,22.1,0,27.1,0,32.5c0,0.1,0,0.2,0,0.3
		c0.1,9.1,3.9,17.4,10,23.2c5.8,5.6,13.7,9,22.4,9c1.6,0,3.2-0.1,4.7-0.3c0,0,0.1,0,0.1,0c3.3-0.5,6.4-1.5,9.3-2.9l0,0
		C56.6,56.9,63.7,47.2,64.8,35.7z"/>
	<g class="st3">
		<path class="st4" d="M55.9,16.5H29.2c-0.9,0-1.6,0.7-1.6,1.5v5.3c0,0.9,0.7,1.5,1.6,1.5h26.7c0.9,0,1.5-0.7,1.5-1.5v-5.3
			C57.4,17.2,56.7,16.5,55.9,16.5L55.9,16.5z M30.4,20.2c-0.5,0-1-0.4-1-1c0-0.5,0.4-1,1-1c0.5,0,1,0.4,1,1
			C31.4,19.8,30.9,20.2,30.4,20.2L30.4,20.2z M53.3,23h-6.7v-2.2h6.7V23z M53.3,23"/>
		<path class="st4" d="M55.9,25.7H29.2c-0.9,0-1.6,0.7-1.6,1.5v5.3c0,0.9,0.7,1.5,1.6,1.5h26.7c0.9,0,1.5-0.7,1.5-1.5v-5.3
			C57.4,26.4,56.7,25.7,55.9,25.7L55.9,25.7z M30.4,29.4c-0.5,0-1-0.4-1-1c0-0.5,0.4-1,1-1c0.5,0,1,0.4,1,1
			C31.4,29,30.9,29.4,30.4,29.4L30.4,29.4z M53.3,32.2h-6.7v-2.2h6.7V32.2z M53.3,32.2"/>
		<path class="st4" d="M55.9,35H29.2c-0.9,0-1.6,0.7-1.6,1.5v5.3c0,0.9,0.7,1.5,1.6,1.5h26.7c0.9,0,1.5-0.7,1.5-1.5v-5.3
			C57.4,35.6,56.7,35,55.9,35L55.9,35z M30.4,38.6c-0.5,0-1-0.4-1-1c0-0.5,0.4-1,1-1c0.5,0,1,0.4,1,1C31.4,38.2,30.9,38.6,30.4,38.6
			L30.4,38.6z M53.3,41.4h-6.7v-2.2h6.7V41.4z M53.3,41.4"/>
	</g>
	<g class="st3">
		<path class="st4" d="M15.1,16.5h-26.7c-0.9,0-1.6,0.7-1.6,1.5v5.3c0,0.9,0.7,1.5,1.6,1.5h26.7c0.9,0,1.5-0.7,1.5-1.5v-5.3
			C16.6,17.2,15.9,16.5,15.1,16.5L15.1,16.5z M-10.4,20.2c-0.5,0-1-0.4-1-1c0-0.5,0.4-1,1-1c0.5,0,1,0.4,1,1
			C-9.4,19.8-9.8,20.2-10.4,20.2L-10.4,20.2z M12.6,23H5.8v-2.2h6.7V23z M12.6,23"/>
		<path class="st4" d="M15.1,25.7h-26.7c-0.9,0-1.6,0.7-1.6,1.5v5.3c0,0.9,0.7,1.5,1.6,1.5h26.7c0.9,0,1.5-0.7,1.5-1.5v-5.3
			C16.6,26.4,15.9,25.7,15.1,25.7L15.1,25.7z M-10.4,29.4c-0.5,0-1-0.4-1-1c0-0.5,0.4-1,1-1c0.5,0,1,0.4,1,1
			C-9.4,29-9.8,29.4-10.4,29.4L-10.4,29.4z M12.6,32.2H5.8v-2.2h6.7V32.2z M12.6,32.2"/>
		<path class="st4" d="M15.1,35h-26.7c-0.9,0-1.6,0.7-1.6,1.5v5.3c0,0.9,0.7,1.5,1.6,1.5h26.7c0.9,0,1.5-0.7,1.5-1.5v-5.3
			C16.6,35.6,15.9,35,15.1,35L15.1,35z M-10.4,38.6c-0.5,0-1-0.4-1-1c0-0.5,0.4-1,1-1c0.5,0,1,0.4,1,1C-9.4,38.2-9.8,38.6-10.4,38.6
			L-10.4,38.6z M12.6,41.4H5.8v-2.2h6.7V41.4z M12.6,41.4"/>
	</g>
</g>
</svg>
